<svg xmlns="http://www.w3.org/2000/svg" width="160" height="36" viewBox="0 0 160 36">
    <g fill="none" fill-rule="evenodd">
        <rect width="36" height="36" fill="#2865CA" rx="2.25"/>
        <text fill="#FFF" font-family="LibreFranklin-Bold, Libre Franklin" font-size="9" font-weight="bold">
            <tspan x="6.912" y="21.375">AKM</tspan>
        </text>
        <text fill="#FFF" font-family="LibreFranklin-Bold, Libre Franklin" font-size="14" font-weight="bold">
            <tspan x="48" y="20">AKM E-Learning</tspan>
        </text>
    </g>
</svg>
